//Maya ASCII 2018 scene
//Name: lightStoneSeemless.ma
//Last modified: Sat, Apr 28, 2018 12:40:43 PM
//Codeset: 1252
requires maya "2018";
requires "stereoCamera" "10.0";
currentUnit -l meter -a degree -t film;
fileInfo "application" "maya";
fileInfo "product" "Maya 2018";
fileInfo "version" "2018";
fileInfo "cutIdentifier" "201706261615-f9658c4cfc";
fileInfo "osv" "Microsoft Windows 8 Home Premium Edition, 64-bit  (Build 9200)\n";
fileInfo "license" "student";
createNode file -n "file2";
	rename -uid "B195BA7B-4269-A373-96DD-A6AC2F6187FB";
	setAttr ".ail" yes;
	setAttr ".ftn" -type "string" "C:/Users/User/Documents/maya/tempBU/New_Project//sourceimages/lightStoneTextureSeemlessBump.png";
	setAttr ".cs" -type "string" "sRGB";
createNode place2dTexture -n "place2dTexture2";
	rename -uid "8AFA7F80-40E5-F7A7-58D5-44BFF11E12B6";
createNode bump2d -n "bump2d1";
	rename -uid "7A45CA0C-4319-93B1-9130-2EAC15D001DC";
	setAttr ".vc1" -type "float3" 0 9.0000001e-05 0 ;
	setAttr ".vc2" -type "float3" 9.9999997e-06 9.9999997e-06 0 ;
createNode file -n "file1";
	rename -uid "B00D4899-40F4-A039-AF29-E492018A2674";
	setAttr ".ftn" -type "string" "C:/Users/User/Documents/maya/tempBU/New_Project//sourceimages/lightStoneTextureSeemless.png";
	setAttr ".cs" -type "string" "sRGB";
createNode place2dTexture -n "place2dTexture1";
	rename -uid "4D5295F3-48B5-25AF-0EAF-7AB6C8C331D0";
createNode lambert -n "lightStone";
	rename -uid "A302A21B-4DF4-C082-9959-398007AC3709";
createNode shadingEngine -n "lambert15SG";
	rename -uid "7BE0DA27-4D0B-9B9C-54F8-368BA5E17D6F";
	setAttr ".ihi" 0;
	setAttr -s 31 ".dsm";
	setAttr ".ro" yes;
	setAttr -s 3 ".gn";
createNode materialInfo -n "materialInfo14";
	rename -uid "4484F5EA-4D0A-F09E-E94A-2A994CCFE06F";
createNode lightLinker -s -n "lightLinker1";
	rename -uid "9A80164C-45B6-302D-D560-8AB6A1E0C450";
	setAttr -s 19 ".lnk";
	setAttr -s 19 ".slnk";
select -ne :time1;
	setAttr ".o" 1;
	setAttr ".unw" 1;
select -ne :hardwareRenderingGlobals;
	setAttr ".otfna" -type "stringArray" 22 "NURBS Curves" "NURBS Surfaces" "Polygons" "Subdiv Surface" "Particles" "Particle Instance" "Fluids" "Strokes" "Image Planes" "UI" "Lights" "Cameras" "Locators" "Joints" "IK Handles" "Deformers" "Motion Trails" "Components" "Hair Systems" "Follicles" "Misc. UI" "Ornaments"  ;
	setAttr ".otfva" -type "Int32Array" 22 0 1 1 1 1 1
		 1 1 1 0 0 0 0 0 0 0 0 0
		 0 0 0 0 ;
	setAttr ".fprt" yes;
select -ne :renderPartition;
	setAttr -s 19 ".st";
select -ne :renderGlobalsList1;
select -ne :defaultShaderList1;
	setAttr -s 21 ".s";
select -ne :postProcessList1;
	setAttr -s 2 ".p";
select -ne :defaultRenderUtilityList1;
	setAttr -s 12 ".u";
select -ne :defaultRenderingList1;
select -ne :defaultTextureList1;
	setAttr -s 8 ".tx";
select -ne :initialShadingGroup;
	setAttr ".ro" yes;
select -ne :initialParticleSE;
	setAttr ".ro" yes;
select -ne :defaultRenderGlobals;
	setAttr ".ren" -type "string" "arnold";
select -ne :defaultResolution;
	setAttr ".pa" 1;
select -ne :hardwareRenderGlobals;
	setAttr ".ctrs" 256;
	setAttr ".btrs" 512;
connectAttr ":defaultColorMgtGlobals.cme" "file2.cme";
connectAttr ":defaultColorMgtGlobals.cfe" "file2.cmcf";
connectAttr ":defaultColorMgtGlobals.cfp" "file2.cmcp";
connectAttr ":defaultColorMgtGlobals.wsn" "file2.ws";
connectAttr "place2dTexture2.c" "file2.c";
connectAttr "place2dTexture2.tf" "file2.tf";
connectAttr "place2dTexture2.rf" "file2.rf";
connectAttr "place2dTexture2.mu" "file2.mu";
connectAttr "place2dTexture2.mv" "file2.mv";
connectAttr "place2dTexture2.s" "file2.s";
connectAttr "place2dTexture2.wu" "file2.wu";
connectAttr "place2dTexture2.wv" "file2.wv";
connectAttr "place2dTexture2.re" "file2.re";
connectAttr "place2dTexture2.of" "file2.of";
connectAttr "place2dTexture2.r" "file2.ro";
connectAttr "place2dTexture2.n" "file2.n";
connectAttr "place2dTexture2.vt1" "file2.vt1";
connectAttr "place2dTexture2.vt2" "file2.vt2";
connectAttr "place2dTexture2.vt3" "file2.vt3";
connectAttr "place2dTexture2.vc1" "file2.vc1";
connectAttr "place2dTexture2.o" "file2.uv";
connectAttr "place2dTexture2.ofs" "file2.fs";
connectAttr "file2.oa" "bump2d1.bv";
connectAttr ":defaultColorMgtGlobals.cme" "file1.cme";
connectAttr ":defaultColorMgtGlobals.cfe" "file1.cmcf";
connectAttr ":defaultColorMgtGlobals.cfp" "file1.cmcp";
connectAttr ":defaultColorMgtGlobals.wsn" "file1.ws";
connectAttr "place2dTexture1.c" "file1.c";
connectAttr "place2dTexture1.tf" "file1.tf";
connectAttr "place2dTexture1.rf" "file1.rf";
connectAttr "place2dTexture1.mu" "file1.mu";
connectAttr "place2dTexture1.mv" "file1.mv";
connectAttr "place2dTexture1.s" "file1.s";
connectAttr "place2dTexture1.wu" "file1.wu";
connectAttr "place2dTexture1.wv" "file1.wv";
connectAttr "place2dTexture1.re" "file1.re";
connectAttr "place2dTexture1.of" "file1.of";
connectAttr "place2dTexture1.r" "file1.ro";
connectAttr "place2dTexture1.n" "file1.n";
connectAttr "place2dTexture1.vt1" "file1.vt1";
connectAttr "place2dTexture1.vt2" "file1.vt2";
connectAttr "place2dTexture1.vt3" "file1.vt3";
connectAttr "place2dTexture1.vc1" "file1.vc1";
connectAttr "place2dTexture1.o" "file1.uv";
connectAttr "place2dTexture1.ofs" "file1.fs";
connectAttr "file1.oc" "lightStone.c";
connectAttr "bump2d1.o" "lightStone.n";
connectAttr "lightStone.oc" "lambert15SG.ss";
connectAttr "|endHalfPostShape.iog" "lambert15SG.dsm" -na;
connectAttr "endFullPostShape.iog" "lambert15SG.dsm" -na;
connectAttr "|subBalusterShape.iog" "lambert15SG.dsm" -na;
connectAttr "|balusterShape.iog" "lambert15SG.dsm" -na;
connectAttr "dockCatwalkBracketShape.iog" "lambert15SG.dsm" -na;
connectAttr "dockCatwalkSupportsShape.iog" "lambert15SG.dsm" -na;
connectAttr "railingShape.iog" "lambert15SG.dsm" -na;
connectAttr "cornerArchShape.iog" "lambert15SG.dsm" -na;
connectAttr "cornerShape.iog" "lambert15SG.dsm" -na;
connectAttr "polySurface30Shape.iog" "lambert15SG.dsm" -na;
connectAttr "endHalfPost1Shape.iog" "lambert15SG.dsm" -na;
connectAttr "|endHalfPostShape.iog" "lambert15SG.dsm" -na;
connectAttr "|archPosts_IFYShape.iog" "lambert15SG.dsm" -na;
connectAttr "|subBalusterShape.iog" "lambert15SG.dsm" -na;
connectAttr "|balusterShape.iog" "lambert15SG.dsm" -na;
connectAttr "|archPosts_IFYShape.iog" "lambert15SG.dsm" -na;
connectAttr "pillarBaseShape.iog" "lambert15SG.dsm" -na;
connectAttr "fourPillarsShape.iog" "lambert15SG.dsm" -na;
connectAttr "outerBracesShape.iog" "lambert15SG.dsm" -na;
connectAttr "outerBraces1Shape.iog" "lambert15SG.dsm" -na;
connectAttr "pillarMidPointRimShape.iog" "lambert15SG.dsm" -na;
connectAttr "pillarBodyShape.iog" "lambert15SG.dsm" -na;
connectAttr "ceilingVault1Shape.iog" "lambert15SG.dsm" -na;
connectAttr "pillarTopPointRim1Shape.iog" "lambert15SG.dsm" -na;
connectAttr "pillarTopPointRimShape.iog" "lambert15SG.dsm" -na;
connectAttr "fourPillarBracersShape.iog.og[1]" "lambert15SG.dsm" -na;
connectAttr "ceilingVaultNPShape.iog" "lambert15SG.dsm" -na;
connectAttr "buttressShape.iog.og[0]" "lambert15SG.dsm" -na;
connectAttr "buttressShape.ciog.cog[0]" "lambert15SG.dsm" -na;
connectAttr "groupId22.msg" "lambert15SG.gn" -na;
connectAttr "groupId23.msg" "lambert15SG.gn" -na;
connectAttr "groupId24.msg" "lambert15SG.gn" -na;
connectAttr "lambert15SG.msg" "materialInfo14.sg";
connectAttr "lightStone.msg" "materialInfo14.m";
connectAttr "file1.msg" "materialInfo14.t" -na;
relationship "link" ":lightLinker1" ":initialShadingGroup.message" ":defaultLightSet.message";
relationship "link" ":lightLinker1" ":initialParticleSE.message" ":defaultLightSet.message";
relationship "link" ":lightLinker1" "lambert15SG.message" ":defaultLightSet.message";
relationship "shadowLink" ":lightLinker1" ":initialShadingGroup.message" ":defaultLightSet.message";
relationship "shadowLink" ":lightLinker1" ":initialParticleSE.message" ":defaultLightSet.message";
relationship "shadowLink" ":lightLinker1" "lambert15SG.message" ":defaultLightSet.message";
connectAttr "lambert15SG.pa" ":renderPartition.st" -na;
connectAttr "lightStone.msg" ":defaultShaderList1.s" -na;
connectAttr "place2dTexture1.msg" ":defaultRenderUtilityList1.u" -na;
connectAttr "place2dTexture2.msg" ":defaultRenderUtilityList1.u" -na;
connectAttr "bump2d1.msg" ":defaultRenderUtilityList1.u" -na;
connectAttr "file1.msg" ":defaultTextureList1.tx" -na;
connectAttr "file2.msg" ":defaultTextureList1.tx" -na;
// End of lightStoneSeemless.ma
